{
    "venue": [
        {
            "id": "KovZpZAJJlvA",
            "name": "Austin City Limits Live at The Moody Theater",
            "upcomingShows": [
                {
                    "show_id": "G5dIZp04VfoX-",
                    "artist": "Joe Bonamassa"
                },
                {
                    "show_id": "LvZ189mdXV7v2sZZXZOUp",
                    "artist": "Red, White & Willie Nelson"
                },
                {
                    "show_id": "G5dIZ4URqF9t2",
                    "artist": "The Monkees"
                },
                {
                    "show_id": "G5dIZppMbWvR3",
                    "artist": "HeartByrne"
                },
                {
                    "show_id": "G5dIZpJldNeHx",
                    "artist": "The Mavericks"
                },
                {
                    "show_id": "G5dIZpELxbwy-",
                    "artist": "Jackopierce"
                },
                {
                    "show_id": "G5dIZpJSryS2b",
                    "artist": "Rumours: a Tribute To Fleetwood Mac"
                },
                {
                    "show_id": "G5dIZpJp0Fsj1",
                    "artist": "Kalu & The Electric Joint"
                },
                {
                    "show_id": "G5dIZp7R4Y4tt",
                    "artist": "Widespread Panic"
                },
                {
                    "show_id": "G5dIZ4UNY2Uo4",
                    "artist": "Dennis DeYoung"
                },
                {
                    "show_id": "G5dIZpE1xIeOu",
                    "artist": "The Texas Gentlemen"
                },
                {
                    "show_id": "G5dIZp7Mm0Mtn",
                    "artist": "Primus"
                },
                {
                    "show_id": "G5dIZ4gUL-xzC",
                    "artist": "Steely Dan"
                },
                {
                    "show_id": "G5dIZpAxV5VJX",
                    "artist": "Brit Floyd"
                },
                {
                    "show_id": "G5dIZ4UA6EbHA",
                    "artist": "Jonny Lang"
                },
                {
                    "show_id": "G5dIZp7QVaMxP",
                    "artist": "Jason Isbell and the 400 Unit"
                },
                {
                    "show_id": "G5dIZpJcXZshU",
                    "artist": "Dinosaur Jr."
                },
                {
                    "show_id": "G5dIZp7BzvE6G",
                    "artist": "Purity Ring"
                },
                {
                    "show_id": "G5dIZ4gBvkwAd",
                    "artist": "Buddy Guy"
                },
                {
                    "show_id": "G5dIZpu51UPjC",
                    "artist": "KALEO"
                },
                {
                    "show_id": "G5dIZpA9IqMPE",
                    "artist": "They Might Be Giants"
                },
                {
                    "show_id": "G5dIZ4MEjL4-j",
                    "artist": "David Gray"
                }
            ],
            "url": "https://www.ticketmaster.com/austin-city-limits-live-at-the-tickets-austin/venue/476009",
            "aliases": [
                "ACL",
                "Austin City Limits"
            ],
            "postalCode": "78701",
            "address": {
                "line1": "310 Willie Nelson Boulevard"
            },
            "upcoming": 37,
            "images": "none"
        },
        {
            "id": "rZ7HnEZ173fxA",
            "name": "Christian Life Austin",
            "upcomingShows": [
                {
                    "show_id": "rZ7HnEZ1A8xd8P",
                    "artist": "Danny Gokey"
                }
            ],
            "url": "https://www.ticketweb.com/venue/christian-life-austin-austin-tx/494885",
            "aliases": null,
            "postalCode": "78745",
            "address": {
                "line1": "4700 West Gate Boulevard"
            },
            "upcoming": 1,
            "images": "none"
        },
        {
            "id": "KovZ917AxfF",
            "name": "3TEN Austin City Limits Live",
            "upcomingShows": [
                {
                    "show_id": "G5dIZ4gbdUMdw",
                    "artist": "The Music of Cream"
                },
                {
                    "show_id": "G5dIZpAnK63yW",
                    "artist": "ABBARAMA"
                },
                {
                    "show_id": "G5dIZpeCjKKnz",
                    "artist": "Rebirth Brass Band"
                },
                {
                    "show_id": "G5dIZ4z5Ou4Kj",
                    "artist": "Torres"
                },
                {
                    "show_id": "G5dIZpEB4xV2i",
                    "artist": "Supersuckers"
                },
                {
                    "show_id": "G5dIZ4M5dQgm7",
                    "artist": "The Jayhawks"
                }
            ],
            "url": "https://www.ticketmaster.com/3ten-austin-city-limits-live-tickets-austin/venue/476210",
            "aliases": [
                "ACL",
                "Austin City Limits"
            ],
            "postalCode": "78701",
            "address": {
                "line1": "310 Willie Nelson Blvd, Suite 1A"
            },
            "upcoming": 8,
            "images": "none"
        },
        {
            "id": "KovZpZAJEFJA",
            "name": "Germania Insurance Amphitheater",
            "upcomingShows": [
                {
                    "show_id": "G5dIZ4Ml6IKRh",
                    "artist": "Alanis Morissette"
                },
                {
                    "show_id": "G5dIZ4UrA3dy0",
                    "artist": "THE BLACK CROWES"
                },
                {
                    "show_id": "G5dIZp7Q-0JPc",
                    "artist": "Megadeth"
                },
                {
                    "show_id": "G5dIZ4zCLVdyu",
                    "artist": "Maroon 5"
                },
                {
                    "show_id": "G5dIZ4UR-uEcy",
                    "artist": "KISS"
                }
            ],
            "url": "https://www.ticketmaster.com/germania-insurance-amphitheater-tickets-austin/venue/476047",
            "aliases": null,
            "postalCode": "78617",
            "address": {
                "line1": "9201 Circuit of the Americas Blvd."
            },
            "upcoming": 6,
            "images": [
                {
                    "ratio": "3_1",
                    "url": "https://s1.ticketm.net/dam/v/af1/9c1d8c06-451e-4164-946c-40630ac76af1_381201_SOURCE.jpg",
                    "width": 1500,
                    "height": 500,
                    "fallback": false
                },
                {
                    "ratio": "16_9",
                    "url": "https://s1.ticketm.net/dbimages/21898v.jpg",
                    "width": 205,
                    "height": 115,
                    "fallback": false
                }
            ]
        },
        {
            "id": "KovZpZAEkItA",
            "name": "Zilker Park",
            "upcomingShows": [
                {
                    "show_id": "G5dIZ4gxuFSsQ",
                    "artist": "Austin City Limits Music Festival"
                }
            ],
            "url": "https://www.ticketmaster.com/zilker-park-tickets-austin/venue/475836",
            "aliases": null,
            "postalCode": "78704",
            "address": {
                "line1": "2100 Barton Springs Rd"
            },
            "upcoming": 2,
            "images": "none"
        },
        {
            "id": "KovZ917ANwG",
            "name": "Moody Center ATX",
            "upcomingShows": [
                {
                    "show_id": "G5dIZpNH1d3gw",
                    "artist": "The Weeknd"
                }
            ],
            "url": "https://www.ticketmaster.com/moody-center-atx-tickets-austin/venue/476228",
            "aliases": null,
            "postalCode": "78712",
            "address": {
                "line1": "2001 Robert Dedman Drive"
            },
            "upcoming": 1,
            "images": [
                {
                    "ratio": "16_9",
                    "url": "https://s1.ticketm.net/dbimages/22076v.jpg",
                    "width": 205,
                    "height": 115,
                    "fallback": false
                }
            ]
        }
    ]
}